…
``` r
noaa <- ny_noaa %>%
  janitor::clean_names() %>%
  separate(date, c("year", "month", "day"), sep = "-", convert = TRUE) %>%
  mutate(
    month = month.name[as.integer(month)],
    prcp = prcp / 10,
    tmax = as.numeric(tmax) / 10, 
    tmin = as.numeric(tmin) / 10    # proper units
    )
noaa
```

    ## # A tibble: 2,595,176 × 9
    ##    id           year month      day  prcp  snow  snwd  tmax  tmin
    ##    <chr>       <int> <chr>    <int> <dbl> <int> <int> <dbl> <dbl>
    ##  1 US1NYAB0001  2007 November     1    NA    NA    NA    NA    NA
    ##  2 US1NYAB0001  2007 November     2    NA    NA    NA    NA    NA
    ##  3 US1NYAB0001  2007 November     3    NA    NA    NA    NA    NA
    ##  4 US1NYAB0001  2007 November     4    NA    NA    NA    NA    NA
    ##  5 US1NYAB0001  2007 November     5    NA    NA    NA    NA    NA
    ##  6 US1NYAB0001  2007 November     6    NA    NA    NA    NA    NA
    ##  7 US1NYAB0001  2007 November     7    NA    NA    NA    NA    NA
    ##  8 US1NYAB0001  2007 November     8    NA    NA    NA    NA    NA
    ##  9 US1NYAB0001  2007 November     9    NA    NA    NA    NA    NA
    ## 10 US1NYAB0001  2007 November    10    NA    NA    NA    NA    NA
    ## # ℹ 2,595,166 more rows

### The most commonly observed values for snowfall

``` r
noaa %>% 
  group_by(snow) %>% 
  summarise(frequency = n()) %>%  # count the occurrence of each observed snowfall data
  arrange(desc(frequency))        # arrange the data in descending order to find the most frequent ones
```

    ## # A tibble: 282 × 2
    ##     snow frequency
    ##    <int>     <int>
    ##  1     0   2008508
    ##  2    NA    381221
    ##  3    25     31022
    ##  4    13     23095
    ##  5    51     18274
    ##  6    76     10173
    ##  7     8      9962
    ##  8     5      9748
    ##  9    38      9197
    ## 10     3      8790
    ## # ℹ 272 more rows
…
``` r
result_df = rbind(jan2020_df, july2020_df, jan2024_df, july2024_df) |>
  janitor::clean_names() |> 
  drop_na()

result_df 
```

    ## # A tibble: 99,253 × 8
    ##    ride_id   rideable_type weekdays duration start_station_name end_station_name
    ##    <chr>     <chr>         <chr>       <dbl> <chr>              <chr>           
    ##  1 4BE06CB3… classic_bike  Tuesday     15.3  Columbus Ave & W … E 53 St & Madis…
    ##  2 26886E03… classic_bike  Wednesd…     5.31 2 Ave & E 96 St    1 Ave & E 110 St
    ##  3 24DC5606… classic_bike  Friday       9.69 Columbia St & Riv… Grand St & Eliz…
    ##  4 EEDC1053… classic_bike  Sunday       7.00 W 84 St & Columbu… Columbus Ave & …
    ##  5 2CD4BD4C… classic_bike  Friday       2.85 Forsyth St & Broo… Suffolk St & St…
    ##  6 E18682F9… classic_bike  Sunday      25.5  Allen St & Hester… Atlantic Ave & …
    ##  7 B9B2E896… classic_bike  Sunday       3.65 Lafayette St & Je… Washington Pl &…
    ##  8 DEF8F504… classic_bike  Sunday      38.3  28 Ave & 44 St     Broadway & Kosc…
    ##  9 17D44DA9… classic_bike  Thursday    38.5  Barrow St & Hudso… Emerson Pl & My…
    ## 10 0FD113A3… classic_bike  Tuesday      6.52 Carlton Ave & Par… Emerson Pl & My…
    ## # ℹ 99,243 more rows
    ## # ℹ 2 more variables: member_casual <chr>, date <chr>
…
